/home/fabio/ifam/LPOO/LPOOLOJA/src/main/java/org/json/JSONObject.java
/home/fabio/ifam/LPOO/LPOOLOJA/src/main/java/model/Mensagem.java
/home/fabio/ifam/LPOO/LPOOLOJA/src/main/java/org/json/XML.java
/home/fabio/ifam/LPOO/LPOOLOJA/src/main/java/controller/MensagemControl.java
/home/fabio/ifam/LPOO/LPOOLOJA/src/main/java/view/MenuViewAdministrador.java
/home/fabio/ifam/LPOO/LPOOLOJA/src/main/java/org/json/HTTP.java
/home/fabio/ifam/LPOO/LPOOLOJA/src/main/java/model/Usuario.java
/home/fabio/ifam/LPOO/LPOOLOJA/src/main/java/org/json/JSONArray.java
/home/fabio/ifam/LPOO/LPOOLOJA/src/main/java/org/json/CDL.java
/home/fabio/ifam/LPOO/LPOOLOJA/src/main/java/arquivo/Arquivo.java
/home/fabio/ifam/LPOO/LPOOLOJA/src/main/java/view/CadastroMensagem.java
/home/fabio/ifam/LPOO/LPOOLOJA/src/main/java/org/json/JSONPointer.java
/home/fabio/ifam/LPOO/LPOOLOJA/src/main/java/view/CompraView.java
/home/fabio/ifam/LPOO/LPOOLOJA/src/main/java/org/json/JSONPropertyName.java
/home/fabio/ifam/LPOO/LPOOLOJA/src/main/java/view/TabelaViewUsuario.java
/home/fabio/ifam/LPOO/LPOOLOJA/src/main/java/view/ClienteMensagemView.java
/home/fabio/ifam/LPOO/LPOOLOJA/src/main/java/controller/LoginControl.java
/home/fabio/ifam/LPOO/LPOOLOJA/src/main/java/org/json/Cookie.java
/home/fabio/ifam/LPOO/LPOOLOJA/src/main/java/controller/MenuClienteControl.java
/home/fabio/ifam/LPOO/LPOOLOJA/src/main/java/view/TabelaViewCategoria.java
/home/fabio/ifam/LPOO/LPOOLOJA/src/main/java/table/TabelaMensagem.java
/home/fabio/ifam/LPOO/LPOOLOJA/src/main/java/org/json/CookieList.java
/home/fabio/ifam/LPOO/LPOOLOJA/src/main/java/controller/ProdutoControl.java
/home/fabio/ifam/LPOO/LPOOLOJA/src/main/java/view/CadastroProduto.java
/home/fabio/ifam/LPOO/LPOOLOJA/src/main/java/org/json/JSONString.java
/home/fabio/ifam/LPOO/LPOOLOJA/src/main/java/model/Produto.java
/home/fabio/ifam/LPOO/LPOOLOJA/src/main/java/controller/CategoriaControl.java
/home/fabio/ifam/LPOO/LPOOLOJA/src/main/java/org/json/HTTPTokener.java
/home/fabio/ifam/LPOO/LPOOLOJA/src/main/java/view/TabelaViewCompraRealizada.java
/home/fabio/ifam/LPOO/LPOOLOJA/src/main/java/org/json/Property.java
/home/fabio/ifam/LPOO/LPOOLOJA/src/main/java/controller/ComprasRealizadasControl.java
/home/fabio/ifam/LPOO/LPOOLOJA/src/main/java/view/CadastroCliente.java
/home/fabio/ifam/LPOO/LPOOLOJA/src/main/java/org/json/JSONTokener.java
/home/fabio/ifam/LPOO/LPOOLOJA/src/main/java/view/CadastroUsuario.java
/home/fabio/ifam/LPOO/LPOOLOJA/src/main/java/controller/UsuarioControl.java
/home/fabio/ifam/LPOO/LPOOLOJA/src/main/java/table/TabelaCategoria.java
/home/fabio/ifam/LPOO/LPOOLOJA/src/main/java/org/json/JSONWriter.java
/home/fabio/ifam/LPOO/LPOOLOJA/src/main/java/model/Compra.java
/home/fabio/ifam/LPOO/LPOOLOJA/src/main/java/table/TabelaCompraRealizada.java
/home/fabio/ifam/LPOO/LPOOLOJA/src/main/java/org/json/XMLTokener.java
/home/fabio/ifam/LPOO/LPOOLOJA/src/main/java/view/TabelaViewAdministrador.java
/home/fabio/ifam/LPOO/LPOOLOJA/src/main/java/view/MenuViewCliente.java
/home/fabio/ifam/LPOO/LPOOLOJA/src/main/java/table/TabelaUsuario.java
/home/fabio/ifam/LPOO/LPOOLOJA/src/main/java/model/ItemCompra.java
/home/fabio/ifam/LPOO/LPOOLOJA/src/main/java/table/TabelaAdministrador.java
/home/fabio/ifam/LPOO/LPOOLOJA/src/main/java/view/TabelaVIewMsgAdministrador.java
/home/fabio/ifam/LPOO/LPOOLOJA/src/main/java/org/json/JSONML.java
/home/fabio/ifam/LPOO/LPOOLOJA/src/main/java/org/json/XMLParserConfiguration.java
/home/fabio/ifam/LPOO/LPOOLOJA/src/main/java/table/TabelaProduto.java
/home/fabio/ifam/LPOO/LPOOLOJA/src/main/java/org/json/JSONException.java
/home/fabio/ifam/LPOO/LPOOLOJA/src/main/java/controller/CompraControl.java
/home/fabio/ifam/LPOO/LPOOLOJA/src/main/java/model/Categoria.java
/home/fabio/ifam/LPOO/LPOOLOJA/src/main/java/view/CadastroCategoria.java
/home/fabio/ifam/LPOO/LPOOLOJA/src/main/java/org/json/JSONPointerException.java
/home/fabio/ifam/LPOO/LPOOLOJA/src/main/java/view/TabelaViewProduto.java
/home/fabio/ifam/LPOO/LPOOLOJA/src/main/java/view/LoginView.java
/home/fabio/ifam/LPOO/LPOOLOJA/src/main/java/org/json/JSONPropertyIgnore.java
/home/fabio/ifam/LPOO/LPOOLOJA/src/main/java/controller/MenuAdministradorControl.java
/home/fabio/ifam/LPOO/LPOOLOJA/src/main/java/org/json/JSONStringer.java
